\relax 
\@writefile{toc}{\contentsline {section}{\numberline {1}Code}{1}}
\@writefile{toc}{\contentsline {section}{\numberline {2}Results}{1}}
\@writefile{lot}{\contentsline {table}{\numberline {1}{\ignorespaces Computed values for \textbf  {\textit  {x$^T$x}} and \textbf  {\textit  {$x^T$Mx}} for $n = 5,10,20,100,1000$\relax }}{1}}
\providecommand*\caption@xref[2]{\@setref\relax\@undefined{#1}}
\newlabel{table:values}{{1}{1}}
\@writefile{toc}{\contentsline {subsection}{\numberline {2.1}Expected asymptotic behaviour}{1}}
\@writefile{lot}{\contentsline {table}{\numberline {2}{\ignorespaces The expected asymptotic behaviour of each of the implemented matrix operations\relax }}{2}}
\newlabel{table:bigO}{{2}{2}}
\@writefile{toc}{\contentsline {section}{\numberline {3}Execution time}{2}}
\@writefile{toc}{\contentsline {subsection}{\numberline {3.1}Plots}{2}}
\@writefile{lof}{\contentsline {figure}{\numberline {1}{\ignorespaces The execution time (as a function of problem size $n$) for the dot product of two vectors \textbf  {\textit  {x$^T$x}} for the loop and numpy implementations.\relax }}{2}}
\newlabel{fig:dot}{{1}{2}}
\newlabel{(fig:dot)}{{3.1}{2}}
\newlabel{(fig:Mx)}{{3.1}{2}}
\newlabel{(fig:xMx)}{{3.1}{2}}
\newlabel{(fig:MM)}{{3.1}{2}}
\@writefile{lof}{\contentsline {figure}{\numberline {2}{\ignorespaces The execution time (as a function of problem size $n$) for the multiplication of a matrix with a vector \textbf  {\textit  {Mx}} for the loop and numpy implementations.\relax }}{3}}
\newlabel{fig:Mx}{{2}{3}}
\@writefile{lof}{\contentsline {figure}{\numberline {3}{\ignorespaces The execution time (as a function of problem size $n$) for the multiplication of two vectors and a matrix \textbf  {\textit  {x$^T$Mx}} for the loop and numpy implementations.\relax }}{3}}
\newlabel{fig:xMx}{{3}{3}}
\@writefile{lof}{\contentsline {figure}{\numberline {4}{\ignorespaces The execution time (as a function of problem size $n$) for the multiplication of two matrices \textbf  {\textit  {MM}} for the loop and numpy implementations.\relax }}{3}}
\newlabel{fig:MM}{{4}{3}}
\@writefile{toc}{\contentsline {subsection}{\numberline {3.2}Estimation of number of FLOPS of my system}{4}}
\@writefile{toc}{\contentsline {section}{\numberline {4}Conclusions}{4}}
